"ID","Y"
1,71809503.8946131
2,4187026720.87448
3,36484117085.8521
4,6225546366.64374
5,31509648717.4882
6,895032986.592605
7,76979171.9494309
8,1379041725.80217
9,421326025.323612
10,7342664026.93435
11,3087187618.7116
12,51186312171.5466
13,14745198214.2712
15,1353058301.6139
16,45018143298.1847
17,69703071522.3834
18,11082558229.5767
19,1076930278.98036
20,6168044261.5222
21,6931724499.67224
22,1256094394.83837
23,11428871131.7884
24,44986828248.1256
25,51911567294.1449
26,789848214.475647
27,3322578481.46926
28,79427621672.2856
29,75570973776.948
30,452447905.878134
31,2674795.31806564
33,2460085228.43853
34,31057580170.4281
35,9419129075.3778
36,42813088.7782719
37,32134822528.8114
38,34532510948.532
39,22619450867.8471
40,2492396467.71714
41,7401120615.59475
42,87259816585.4589
43,3851817473.02188
44,4865747749.61519
45,286685652.58062
46,8034579.96926557
47,98180965.1996593
48,41729960886.9264
49,147439933.393327
50,2456065152.72875
51,2126111665.68845
52,1013823087.74418
53,8594333823.75871
54,362332307.642651
55,867258441.514732
57,39144331503.5867
58,1604398679.75026
59,780053653.423436
60,51263494.77373
61,20002235857.4881
62,7910463277.73204
63,1323577740.51125
64,49816809265.4504
65,662720196.041847
66,27149581117.6806
67,21632796583.8006
68,148114382.602451
69,39644312186.0313
70,147197181.231867
71,1186680682.72283
72,32489718909.5245
73,232567763.190919
74,968387206.821226
75,64249530551.0644
76,379369271.802865
77,753681736.613179
78,314068360.849837
79,168225862.010555
80,536315568.162724
81,4045571639.22612
82,99543459.3167854
83,161707288.367659
84,432455485.309084
85,2302423373.52671
86,2371119906.39772
87,1405115614.98288
88,42107525227.5377
89,2105775233.52553
90,28845071574.5519
91,471202570.436777
92,1723184030.26522
93,22518101038.8884
94,28543465136.969
95,27931829495.6481
96,393348412.143876
97,1259596281.18255
98,882884.796651526
99,7861162173.68067
100,12522393782.9947
101,4032383.32809146
102,14364269423.812
103,2255944.46751924
105,91148341547.9961
106,2022137759.1879
107,1472077921.15494
108,76535013924.5932
109,19258858320.3011
110,92330336.2641568
111,4125512053.07086
112,12573293545.8576
114,12024299947.3319
115,26028025942.2564
116,1191499418.45927
117,52189.545340742
118,85966292466.9944
119,43142561421.8933
120,230458485.589427
121,5192176776.84849
122,4754070412.81224
123,13600547652.4094
124,2202978072.88676
125,417538352.92451
126,198719621.34078
127,540629286.272539
129,32578672024.8324
130,22002476067.2826
131,21632867056.1978
132,4534414635.231
133,148857915.479344
135,1167522.09719871
136,1182165528.61461
137,1782183721.63781
138,7422799256.06208
139,41540406730.4587
140,17894586185.5049
141,11925457334.1005
142,14853264.2923157
143,4781597395.5765
144,199779961.654164
145,44327363533.7533
146,32080499820.5051
147,57548479794.7948
148,22081561416.3777
149,238043777.509097
150,1699159241.25256
151,59975991123.1842
152,211709813.899091
153,136696152546.253
154,17510851281.6063
155,400954873.416926
156,20549293595.7504
157,934056301.108918
158,3162667978.86446
159,9697265382.63182
160,546656901.325386
161,195319940.942604
162,48931051816.2001
163,5517655852.65503
165,10908296542.9652
167,5529013950.06085
168,35958610927.3961
169,61854944367.6479
170,7805084881.03533
171,576869.531404831
172,3792135724.83401
173,1734025725.63788
174,34817084163.7912
175,7435338588.18383
176,7947770661.50943
177,587347943.506031
178,11179557400.0735
179,56937513728.2147
180,8636.2781533953
181,19941597455.9318
182,6751113947.79594
183,1882893447.68471
184,9154189.73791456
185,2573278927.54769
186,26295496942.0524
187,3626696533.03812
188,395712875.132133
189,5879516968.21952
190,70147631.9124698
191,281966401.208686
192,394659404.629536
193,139991712.088742
194,40104183.757883
195,52149700181.2913
196,2027831693.43142
197,13012934189.849
198,6851765614.93912
199,43082007.2019174
200,1412203.99561569
201,843370127.450414
202,4171133786.66966
203,141669514.828794
204,43488319485.6297
205,1486918152.91695
206,10167053.7078862
207,517760716.50632
208,370480078.248916
210,3479984683.66867
211,7348963499.71067
212,17039953214.7157
213,5613836360.11023
214,1878780013.58671
215,2247531947.33522
216,143651022.264095
217,21251977.1856768
218,19713202143.6849
219,1509443209.67129
220,2951086699.26215
221,197115874.069914
222,27394122305.2699
223,188519199.0699
224,37315139808.8199
225,1307889036.69836
226,91241500222.8759
227,6782.17201398766
228,6274959503.79839
229,13111141638.5618
230,34493706706.1822
231,7465412896.34734
232,2602438732.15666
233,90260933.6163018
234,4043356000.53558
235,366823807.17029
236,472354258.28096
237,31971989035.3447
238,320098019.925119
239,7717517759.31151
240,1607878929.56305
241,5346733631.84971
242,84734629.7489879
243,10056841226.8666
244,334748743.173009
245,673013020.77439
246,2148010581.17957
247,70016305231.3961
248,306343238.128957
249,2736075160.96473
250,2234494471.636
251,34737776.4697387
252,8721878695.68971
253,36657411852.5466
254,3812123615.54814
255,1582546201.28561
256,321155785.06475
257,2752096120.17951
258,135340454148.311
259,6992983461.96611
260,3298686689.46315
261,26818063721.8123
262,28400662209.9417
263,4176826.03358837
264,3332548710.47661
265,83438025.8700859
266,193296557.933578
267,10718.5610892189
268,83998015540.514
269,13990556557.838
270,27602141460.2561
271,4962028466.72827
272,2183007721.97908
273,28448790435.8606
274,42062197.4967863
275,228177144.396094
276,59678683.749342
277,8928581758.56827
278,62698435717.3836
279,39283132396.3558
280,30735431251.3487
281,4679253493.19041
282,2967516284.04608
283,4044416385.2946
284,38856438060.6112
285,91931776.0111696
286,477278480.384012
287,12811452.9124775
288,61147586473.3279
289,201231977.322834
290,3534505159.06196
291,8011740068.00632
292,3548606987.4193
293,13628731741.5463
294,855548467.316321
295,12388977826.4722
296,5267132971.48595
297,4269793566.16012
298,6324707187.04778
299,109703934653.907
300,4530636273.44806
301,22161360231.7612
302,2609509064.24831
303,65907.7420276515
304,47409806200.3069
305,12359962100.157
306,56128385.9637813
307,13312408.3837188
308,13621921836.2446
309,4729614297.15093
310,53723631.6438767
311,1034566481.59604
312,26255115746.6211
313,2214000029.25129
314,11575712055.5411
315,45344422949.6314
316,23664693209.1062
317,16960991.8401029
318,38598166300.4164
319,1849576856.14499
320,38551424133.4207
321,3499094737.23989
322,109455672.220039
323,3944132857.94167
324,19445186656.0439
325,31614484083.0754
326,11660138.3091191
327,1321857579.7639
328,16022448530.8197
329,1312279350.74319
330,1810962468.5155
331,2687402883.94397
332,154195743.272123
333,478247917.665154
334,20111779968.3639
335,11814253.4676193
336,341359942.901589
337,50084871861.9622
338,1835118960.76178
339,704254019.916236
340,30724063.4610789
341,20743056462.0684
342,9517627388.51702
343,682053348.888817
344,18203142973.1026
345,35222507822.6533
346,31485392356.2226
347,25124262.5137833
348,99403894.3262632
349,52805331640.093
351,14756529486.4101
352,515802088.578584
353,1177278250.48284
354,2474444974.27429
355,499634634.076062
357,802946770.775643
358,15532243840.8678
359,18132337435.0352
360,10609155939.9112
361,46666541556.9152
362,248911980.55385
363,84290145788.4634
364,310788393.729881
365,14380754687.2336
366,42315704241.5382
367,543499658.059627
368,167621203.702687
369,12733259423.7587
370,5034321652.93441
371,853632305.07025
372,10361696375.8383
373,23746674890.8054
374,1832393206.42856
375,9291099033.63336
376,46799509369.6821
377,6209625743.86727
378,5159127156.24696
379,1017480090.45748
381,3057896448.48654
383,39262687062.9137
384,15328349737.8492
385,21183207.9510585
386,1786423597.29132
387,1993652137.96693
388,24594449356.7715
389,852655615.836059
390,93307708084.0261
391,25333869108.7397
392,236845.317319788
393,9738745893.99945
394,479766432.677034
395,1541501614.11728
396,608806048.157541
397,1247236672.0074
398,71112771411.058
399,397870080.670364
400,526527658.412142
401,59188463.3470043
402,308984479.637814
403,2035470017.42619
404,314333390.783716
405,1278361163.00377
406,4705342947.17913
407,2998832642.97233
408,1936550469.35098
409,16093355591.876
410,3253439983.81566
411,198546452.295074
412,10947825617.7792
413,47479928184.6976
414,12578965794.755
416,17659491593.2305
417,737534557.378399
418,7634001763.24318
419,22619432630.8511
420,628755347.616374
421,38044233389.0734
422,140822.797082919
423,1011961791.51822
424,5798321.20034782
425,8587552191.47966
426,10710118864.582
427,9988023564.02061
428,14455971880.3071
429,348436324.681376
430,70302405.0712006
431,450530807.776347
432,1176390812.11426
433,4669568338.64995
434,8153136792.08137
435,32661239142.2709
436,5266093159.18596
437,31451706.245069
438,644895.091509253
439,3275710.22423785
440,13838651951.1649
441,644392720.452668
442,945326499.079987
443,17070112249.3105
444,3674748611.72409
445,18370431134.9882
446,8094370673.68369
447,31071514966.3593
448,45008064356.0712
449,265608844.831022
450,31837619390.8003
451,1835829259.37085
452,4954133255.65185
453,28148518993.9715
454,465079.851506205
455,54908555790.8218
456,160321998.008191
457,21431893214.4064
458,11801.4005458042
459,10733596800.5847
460,14622314899.4076
461,5587911933.09287
462,313603861.518664
463,1346951410.5114
464,1652982117.04473
465,5835235667.09138
466,5641238785.04949
467,3527713828.89691
468,1983062927.42251
469,8597043475.7669
470,2996399897.33107
471,351477512.103263
472,277057891.318714
473,1345238047.09319
474,1013941543.87017
475,3299103082.84529
476,6974949.32751455
477,17549960741.0121
478,8883717662.39072
479,6726853619.31764
480,8076462216.03124
481,50791554353.7321
482,342465873.24727
483,253642128.830839
484,2238633446.4149
485,3096653824.55045
486,18248286805.206
487,50020203011.2923
488,52277624644.549
489,1547964633.54907
490,9466886492.48748
491,2124609316.48822
492,6917065615.62167
493,24759650079.8912
494,4412193607.74253
495,351496876.444698
496,69672283453.1422
497,865514245.83236
498,69331.0834822515
499,1638320433.78639
500,64119241024.9463
501,5163047.65336159
502,1113626530.92138
503,15573916213.018
504,8660.50681026254
505,29155105733.3753
506,27917601407.4215
507,11553811281.1851
508,5224601417.20864
509,20010693775.4432
510,18212819984.7939
511,4702949604.76027
512,4137918319.83468
513,12649535392.7074
514,52432453259.3232
515,28907411960.4422
516,856592960.883918
517,19316441137.8407
518,2291973952.75714
519,199029162.345181
520,1238234969.29811
521,456474413.603412
522,517957713.785761
523,24123956256.9329
524,337275263.344858
525,21452455415.888
526,35026230940.2008
527,32699885757.3591
528,802158068.026623
529,23686048874.8118
530,5414153615.69017
531,1277056483.8753
532,1008608389.87731
533,40750598.105864
534,3997720442.65206
535,2325431441.14858
536,22560479291.1135
537,690856552.196298
539,24426791481.27
540,23404376729.4467
541,23542120557.3605
542,14148871620.3694
543,588412748.896659
545,1705325288.94293
546,4633475262.40102
547,1363826904.15185
549,1123309726.80054
550,980630734.448667
551,22167625892.236
552,2927729154.26997
553,19593508952.6258
554,3615094526.54416
555,4316433890.96997
556,1466516561.21209
557,2077321861.77016
558,702675343.250681
559,614491.045287923
560,66262834560.9854
561,4900995559.27798
562,44979141872.4254
563,41120017018.0909
564,1882732226.26284
565,4172421371.6005
566,14541213.5415435
567,1099083298.19896
568,3935097.854025
569,43595361759.7567
570,19063201569.7643
571,21923655.5513619
572,26489380977.9034
573,2522864030.31542
574,607334589.526464
575,120654833177.738
576,36918237241.4931
577,20528064586.3479
578,569639.145548988
579,447642916.803849
580,4035659010.73895
582,8915958054.79231
583,596643509.454972
584,363256737.50357
585,889737163.189123
586,13120149453.7269
587,3.04715635294836
588,67835421761.1144
589,8210330134.91999
590,43841568450.886
591,7371129369.08166
592,729563997.445658
593,1022846220.93322
594,41108476107.5789
595,400654777.391964
596,418514719.836982
597,53029931313.0383
598,15382871579.4806
599,2557491141.80771
600,13502985640.1584
601,9077895254.43938
602,5722950.30884312
603,29874253043.5295
604,15233447763.5414
605,10178030777.4357
606,20382699258.3312
607,2240893401.59928
608,18859567.8291607
609,17976135646.0214
610,14490101520.3788
611,2688920876.47956
612,14066107845.6206
613,4124647195.62036
614,13314432631.5688
615,22085443237.1155
616,310762.759220447
617,56847640059.0085
618,175483105.595482
619,12461724155.7955
620,4844334368.86863
621,786366837.673058
622,346005609.533593
623,667937517.664156
624,7031019065.74317
625,2183900177.04343
626,1515363333.34859
627,19971523510.0588
628,58507511134.1883
629,341209171.646408
630,37528493.7830699
631,5457484.60265637
632,2977971386.29291
633,9738629615.18147
634,32937415104.6871
635,21517776371.3989
636,65781355.44445
637,926727945.445639
638,737828591.139383
639,101382776.097153
640,24230210756.3485
641,1190821975.94431
642,37819398598.816
643,17641916225.0188
644,1691306520.02998
645,44463593152.0255
646,9565977.9081946
647,1263582071.76994
648,29201480805.2238
649,156364355.881293
650,3344495996.57012
651,8928.99849360037
652,5274275919.69911
654,2737808196.96822
655,10559947442.9563
656,30114355454.7361
657,114951180646.958
658,8862196821.46224
659,1340335924.21654
660,23443470.5272425
661,6204672109.75692
662,6624106588.75495
663,1983318.19904606
664,221295988.527898
665,3101551006.79114
666,617656155.255116
667,35092720065.0663
668,4590920281.40825
669,47402551969.8448
670,436833185.138527
671,3053911229.08608
672,372289727.258771
673,20146383.810751
674,1615624184.76586
675,3320885032.00535
676,8130168472.128
677,24142092108.3071
678,8186119801.25362
679,1328302015.6956
680,46062787453.7861
681,3542002553.4247
682,97834721791.3172
683,481073725.318484
684,178248936645.276
685,1370981222.20095
686,66178788812.5163
687,12167423129.5376
688,13419363316.233
689,1541817498.31579
690,8259449123.97515
691,16190823202.0882
692,554124742.481427
693,37217747054.7251
694,1287288313.83891
695,2015423.95165326
696,1967105163.41193
697,7644732841.46605
698,1240345661.58803
699,1302425491.94828
700,292292873.847064
701,1540828496.84346
702,8586568733.34478
703,22676003109.4378
704,29021389234.3056
705,68882419295.8204
706,1260299420.14804
707,25467651919.9757
708,94426278003.2912
709,113065136330.842
710,44107711052.4176
711,178641433.072706
712,45465744793.4771
714,3124278125.5653
715,44680022796.2038
716,17999057859.6876
717,9509381762.32287
718,331288696.194438
719,7409107343.00577
720,4533104116.09831
721,11331338873.2613
722,14000971024.5214
723,2866871886.77038
724,12665967981.4576
725,2312440640.93746
726,5029898845.72386
727,3339306332.32283
728,50438613903.6679
729,7935691676.73899
730,27475924427.8519
731,3696228349.10041
732,44823870510.5267
733,2316900035.07775
734,4791920250.77386
735,1232987718.67682
736,18328012809.914
737,62554432098.2366
738,1240544170.66706
739,88076065506.2481
740,17727793454.1103
741,14068232016.2618
742,1229896053.03057
743,605223826.080125
744,12762619093.3892
747,38525791.5622485
748,1080057661.24592
749,491435841.848253
750,4013697438.57612
751,43515155880.9488
752,1513197479.76536
753,307001111.095072
754,196404597.462532
755,213648828.847908
756,3441578176.24525
757,32090981822.4162
758,29130263011.7033
759,642243473.203417
760,2364352190.97676
761,4974718889.95974
762,11592832646.5766
763,13252686369.7073
764,10868253226.1062
765,671558477.47094
766,4620289097.41698
767,58924592601.9759
768,18578811269.9456
769,728283027.526104
770,8787603832.56661
771,18882224705.1347
772,8549164824.55396
773,4476808944.66344
774,11981767589.3852
775,295181106.758372
776,9450717527.90414
777,65098713399.0492
778,17190247337.47
779,198245937.53985
780,735814378.751861
781,26730598081.4247
782,8204575016.18999
783,2353898574.91098
784,5385610709.06673
785,14188345386.565
786,12321337645.325
787,6461618806.03754
788,2440815193.46949
789,666065320.826947
791,23675580006.2371
792,7983005031.70387
793,425853997.211766
794,1055249510.89818
795,2975418211.35725
796,29579873119.7042
797,353286157.66174
798,2002405527.52885
799,16255825596.8267
800,114691680638.665
801,128308672.682066
802,294360400125.984
803,23097815.6557432
804,34611213658.2999
805,21808883888.5619
806,53063484035.795
807,8564739755.50805
808,570437702.171085
809,315282353.160193
810,43413696728.2391
811,64588767008.0984
812,27343787146.2116
813,1440022333.16375
814,220962764.37844
815,1255865657.5291
816,17487152016.7798
817,64337982406.9581
818,25234606088.325
819,25911798061.4087
820,34903869203.5706
821,6601824469.16336
822,30107404696.8006
823,28988887430.0805
824,113328823083.441
825,3213419962.73171
826,17795968.5370464
827,31015599370.473
828,20404240782.2174
829,4282652177.87503
830,640650323.895609
831,10462724090.3368
832,5146733128.08755
833,12055992891.7734
834,542074210.897524
835,2134562.86631187
836,1199072796.30888
837,10879870053.2806
838,4086741507.15884
839,21886474977.1261
840,6585309.09806684
841,732602518.602063
842,2923262792.27232
843,30728765376.821
844,2616835731.54009
845,3600249868.97845
846,16748668632.9246
847,3085056763.69105
848,1172.03382893144
849,26026722266.105
850,29774232.0065958
851,25040109973.3026
852,6420449791.50798
853,131939990.840284
854,16292998482.7881
855,16646262116.3071
856,59573925153.736
857,468559600.456472
858,29556234465.7444
859,2224422944.66052
860,3423727224.9559
861,1850183408.00534
862,126458241.415655
863,684876582.659396
864,27705417945.4842
865,1943942770.02595
866,45033519127.8314
867,5917995649.53226
868,13532925470.1371
869,3821546596.44456
870,354570171.107461
871,48552913903.7395
872,2157199120.9064
873,61744858342.5671
874,20422630856.4108
875,4587146729.04684
876,22573034.0039181
877,66835981203.5897
878,17385269651.425
879,2655707427.97193
880,85974028332.5816
881,37407306544.9638
882,47059105195.8334
883,31080610315.1706
884,355235901.239144
885,6191287959.54347
886,2146410566.01104
887,27738941159.2943
888,343064912.131977
889,44117258499.2228
890,1630895386.14175
891,1952840790.97918
892,28153020306.9607
893,1137567307.76681
894,14419943942.5603
895,2384453887.17427
896,17273675409.7418
897,219641904.272467
898,24804883622.404
899,195013070.556335
900,19226563359.5818
901,53757361339.4553
902,19052724216.6086
903,7394111.98531116
904,140374191.501625
905,446330452.085495
906,4961403028.30506
907,7339425390.93012
909,1119148889.60481
910,38354046581.661
911,15676466538.8662
912,816415625.396408
913,238143783.952004
914,7820711722.09576
915,4191856324.72182
916,3268030812.16577
917,387810420.111898
918,34119761555.5645
919,36711484081.8228
920,6276808150.67316
921,8929004134.72821
922,142419109.337455
924,60665525.4249871
925,5088339435.91734
926,1274752.48176989
927,2017324246.88652
928,11141256121.9858
929,6665611268.40956
930,20794336302.9636
931,11759158021.3967
932,315685.02413067
933,1162035268.17001
934,9692004939.37397
935,8183486564.10875
936,67602791084.8791
937,2110161333.59399
938,1872781388.63456
939,139173.109397793
940,56892957918.9486
941,57525.1465773609
942,71669860942.0619
943,3746748104.89375
944,404829866.451424
945,36849514924.8079
946,5664858228.83743
947,22198272274.2194
948,2041581638.86249
949,31469860837.0471
950,8215207684.05998
951,3140553560.47037
952,751624744.500768
953,16519535514.1612
954,6189325.75142965
955,13514195.7289955
956,2055214017.0656
957,468513830.468057
958,688131752.010157
959,4351290287.17228
960,665881098.698254
961,7443218194.05014
962,15825768338.7629
963,25502681313.4341
964,3713402147.54301
965,133597.828461104
966,20338111535.8739
967,112519071.626925
968,62923862780.8638
969,6162775074.27755
970,2022799007.43935
971,217543037.523686
972,828.501008378707
973,14609081842.8674
974,48247041126.7744
975,29591870601.0314
976,8270229589.4674
977,8776453049.4118
978,6584236674.74939
979,4937266218.42583
980,20403028364.2492
981,2542894243.35442
982,2330899127.16713
983,8458391996.2846
984,22614619792.3416
985,147582195.361795
986,23031698620.806
988,3740131940.33024
989,27957712042.6803
990,2496829105.55174
991,52092833452.107
992,3999218615.08249
993,1700474911.4438
994,4081019869.01987
995,35778210892.1061
996,81823216.0606073
997,38164235055.1438
998,37203363763.383
999,26878.2514742045
1000,5583340.0945314
1001,70282206233.3041
1002,103097471.200596
1003,28445042957.6251
1004,116610795342.825
1005,25107225052.3226
1006,6971333.2257493
1007,18169611483.3793
1008,5699835028.47193
1009,179281527.55191
1010,5944395410.1983
1012,90594607789.8525
1014,7282137566.8589
1015,17707211346.0284
1016,1944214341.72146
1017,467243334.070001
1018,10611050316.2624
1019,8547475170.31242
1020,2894980518.18628
1021,25437914073.2694
1022,552490081.175339
1023,3496843215.42393
1024,16542613966.1194
1025,1461088569.65441
1026,251731369.506209
1027,28773945.5573799
1028,56579561121.5544
1029,14808556570.8859
1030,51364717.8535713
1031,795922872.385653
1032,34183527274.0778
1034,990044504.995465
1035,18390309.9492779
1036,163624396.153884
1037,2149846882.39433
1038,6237054333.06808
1039,6425683807.86923
1040,24996141440.9765
1041,17092898530.5536
1042,21094262676.6089
1043,26652995649.4966
1044,14339827718.1102
1045,578609085.212209
1046,1598517504.64832
1047,1035605008.19312
1048,9320091207.74598
1049,878612545.642138
1050,1459573330.32329
1051,1200599619.72971
1052,98830334.7904252
1053,3263540429.52961
1054,3993590604.21267
1055,2629512735.06762
1056,224673927.520593
1057,9446704303.22499
1058,2864539903.53283
1059,161802787.738681
1060,7955381804.16134
1061,173807548.199657
1062,41854245028.8257
1063,21058434.8315563
1064,1285138536.3353
1065,7531607271.54501
1066,13309777898.2565
1067,2303403.2888861
1068,3057283556.72276
1069,15839158450.2614
1070,8333489267.55947
1071,40838323319.2706
1072,36011332351.7143
1073,7642172204.01921
1074,568063448.978359
1075,47225990286.7554
1076,12279076.1204743
1077,6824033120.07826
1078,51739396716.8078
1079,28142293680.8105
1080,20283393413.3283
1081,57851737527.9244
1082,423167915.47954
1083,961812666.791569
1084,3035373557.3273
1085,1922551762.56712
1086,28792483355.5736
1087,11509258394.5724
1088,473565258.803972
1089,7861631064.42027
1090,17094057940.1848
1091,1162008903.93785
1092,5763390860.07957
1093,972280007.698968
1094,39435617214.5812
1095,1523237286.88727
1096,326476191.522928
1097,691863534.05378
1098,3619276477.23316
1099,78432088715.5663
1100,12161725350.379
1101,61210945287.8043
1102,377690671.981082
1103,7.22305165814085
1104,3938864815.52173
1105,33212507889.9351
1106,8888882020.45565
1107,28914975583.0898
1108,2338318453.42867
1109,7384553566.09821
1110,23769899073.8166
1111,7137008591.42351
1112,646316187.567515
1113,12362759948.7149
1114,117097282.83259
1115,8840329904.80142
1116,53652503792.5883
1117,3203091943.00175
1118,3706781655.87113
1119,10591664625.7586
1120,571867385.19105
1121,41796176911.9512
1122,2518556726.37865
1123,737332750.835675
1124,797509696.295
1125,62596993626.2496
1126,27373.4152398342
1127,4579957388.52763
1128,42384358061.5421
1129,1084560922.24482
1130,796903204.733237
1131,63119977217.8386
1132,29.6888452625355
1133,459343193.680608
1134,1855424292.70703
1135,4961594275.98488
1136,9992163452.82755
1137,318380154.883993
1138,7903018402.56232
1139,1243823211.06427
1140,1272801306.12254
1141,821609717.165083
1142,45622628531.9537
1143,5090236624.39641
1144,8359514063.0004
1145,1323304330.38122
1146,469965593.651381
1147,3563224942.31389
1148,31337135669.6544
1149,1410780435.09717
1150,12826622646.3803
1151,5984085544.02911
1152,6496201179.17318
1153,4199094.63948631
1154,2130114629.41887
1155,3828792562.83832
1156,3606498098.82919
1157,1028290.45690504
1158,261253020.378942
1159,3743275907.25983
1160,1029255402.65759
1161,332607178.908551
1162,1722101185.12064
1163,19118644326.1588
1165,1282260739.65158
1166,1445995116.03276
1167,472908130.473686
1168,945620253.008513
1169,17592952947.031
1170,5226869613.82442
1171,15991175916.678
1172,11219979556.2652
1173,6749043913.60414
1174,2845354988.04865
1175,105368478045.399
1176,97245921642.6686
1177,31491391816.6782
1178,44052514101.5905
1179,17536163966.8916
1180,2050447036.04206
1181,56845003847.0062
1182,44818217137.3919
1183,13655038999.34
1184,150025586.422324
1185,10364.9046742002
1186,21132398994.547
1187,15565930.6192696
1188,170503912.754256
1189,316784808.864273
1190,1364293050.39404
1191,25925548917.7783
1192,2694573490.97699
1193,31551451544.3604
1194,13988598604.6258
1195,131588543.710426
1196,24101468179.2115
1197,7802767.97709511
1198,7044.81695104755
1199,37725424838.0634
1200,2336776445.28425
1201,3078961352.16003
1202,52479587492.5439
1203,20846370760.319
1204,33811626198.7694
1205,6496878905.26742
1206,937773610.423798
1207,30414324139.8177
1208,46063798550.3048
1209,1110363856.58007
1210,4484546850.40209
1211,20375487507.2872
1212,2438482840.09868
1213,15109112231.9541
1214,56710690280.2442
1215,2812552393.28728
1216,7190400519.69331
1217,13535099316.292
1218,437371025.870776
1219,1147101532.57578
1220,4755615290.15734
1221,16576448751.6054
1222,4505170266.89
1223,10695002094.3251
1224,7439049291.52767
1225,465535044.851485
1227,8976101788.42631
1228,36285728392.7031
1229,13640405713.5182
1230,11889656549.3592
1231,13446539044.1654
1232,11375864182.7355
1233,317401.607913023
1234,1127970877.66973
1235,29090545411.6544
1236,24440803206.9705
1237,21406808378.7297
1238,1511455191.19329
1239,227961052.340302
1240,1511526281.45783
1241,3211010962.99841
1242,73850900.2372489
1243,2421334625.0167
1244,67694187091.9617
1245,229969033.61881
1246,33070975.7279115
1247,5604351071.51859
1248,8133561932.64649
1249,13723244098.6263
1250,32473772923.747
1251,41344224866.3743
1252,21237135150.0828
1253,2541101690.1222
1254,9858627005.68339
1255,1870581150.9192
1256,7763937882.6947
1257,36518537242.0095
1258,52982512066.4077
1259,7027928454.72924
1260,2741989927.15233
1261,5000062404.11881
1262,37671306962.9459
1263,1541370444.4321
1264,617014148.929655
1265,2822237629.39403
1266,2419865.45907019
1267,107159048.135264
1268,2863976410.47123
1269,2899373745.63503
1270,10260972561.7828
1271,122450627.753639
1272,74384826715.2443
1273,609461.67677639
1274,16595194231.4864
1275,5550538661.34641
1277,1645239714.04366
1278,57.2823873436321
1279,4439736008.81117
1280,39173601090.298
1281,644867609.12645
1282,35872397433.8646
1283,10783560056.5408
1284,22565415707.442
1285,2743876055.87053
1286,15635489092.1363
1287,343312721.943357
1288,16783340635.6872
1289,567360098.343871
1290,19052039027.5946
1291,1549596632.87593
1292,6304794465.51878
1293,1957666311.38291
1294,44033087283.8726
1295,6870448898.25245
1296,79886583.5402001
1297,110542225.578325
1298,27174230749.5895
1299,53760775546.6441
1300,4208732424.10428
1301,8174858542.19846
1302,4941054535.0881
1303,5628477749.14665
1304,108979403.190376
1305,1831733154.08151
1306,973713264.317481
1307,47230954957.0105
1308,4472836627.00022
1309,629797723.960431
1310,114659862.358332
1311,246.11017589481
1312,2193370927.91819
1313,1028191835.7954
1314,5225167936.18786
1315,4892219211.44714
1316,1355383761.31185
1317,61487646.4935622
1318,4471735213.25891
1319,81855239710.2342
1320,1591149736.69336
1322,12202946426.7433
1323,18811969.7337187
1324,3378772854.87558
1326,1940156277.93123
1327,727420012.007179
1328,3511227607.72237
1329,1035412804.37963
1330,1110205334.17979
1331,59245361971.5934
1332,109145846.182611
1333,9471479344.07272
1334,4026084555.1768
1335,1754453654.67933
1336,31603705380.8085
1337,47492220011.8608
1338,3792083636.1695
1339,8976304490.79289
1340,726674518.871785
1342,13070170560.6939
1343,10819413464.4923
1344,3940184901.92909
1345,41154325380.4977
1346,11099286179.0894
1347,3107706592.92683
1348,437007400.005567
1349,28882054.0264899
1350,595148549.973708
1351,1928065761.49934
1352,17858160730.0528
1353,15734904565.2635
1354,2567477544.26041
1355,23855690348.162
1356,41137222527.1745
1357,4517078227.43554
1358,17412257183.3399
1359,17613953419.41
1360,557906689.101729
1361,16994582717.929
1362,8115416189.46671
1363,72323023882.132
1364,9429390556.66692
1365,94045542.8442437
1366,14680895367.0271
1367,46577952742.035
1368,1125083718.16335
1369,12314081490.4118
1370,3364306345.37868
1371,45025576942.7699
1373,13284284422.5165
1374,96340333663.2816
1375,19714625838.7605
1376,884276475.008239
1377,33734031142.074
1378,2999265374.88093
1379,10416608661.8382
1380,21411574329.5914
1381,121691909.995551
1383,2360671851.03656
1384,42085735.7507604
1385,2574198825.96436
1386,1903955955.00825
1387,32511956293.385
1388,409885704.601311
1389,1868860079.75051
1390,22191182.8924659
1391,13856876051.2267
1392,9964816861.93779
1393,2887546519.59172
1394,18911320413.5226
1395,602798837.883763
1396,771132279.427577
1397,2516151857.8555
1398,9699805.26482406
1399,8073170793.64296
1400,2336117717.63916
1401,22918355374.6176
1402,1188009020.00782
1403,9555784.3992939
1404,438784362.843628
1405,1813035123.25598
1406,88644768.5925386
1407,1782644606.7185
1408,8781533292.28047
1409,10346646326.9195
1410,17277184490.6089
1411,6284490017.26459
1412,36224405725.4122
1413,42162277.0693864
1414,3778466623.8183
1415,6136431501.55826
1416,17643502.1297694
1417,8662380792.88494
1418,1268804866.74678
1420,26031209397.2525
1421,579759183.18567
1422,11741785709.8641
1423,8268875277.51334
1424,61459683425.823
1425,839150345.626816
1426,23639676994.503
1427,422724641.734924
1428,6089279965.04347
1429,438302275.790623
1430,262993818.964649
1431,70064609758.6245
1432,128.911390150255
1433,38839953.3994131
1434,38940065847.4926
1435,11464180502.801
1436,5555111.81643915
1437,17100004084.269
1438,39703967479.6081
1439,7382523668.07823
1440,5305567576.96896
1441,237688650.879843
1442,978820419.810925
1443,57945827229.127
1444,42293756751.9085
1445,36859019317.4063
1446,739596575.714905
1447,354515.737050908
1448,1840080090.96124
1449,592975475.527451
1451,26793823855.027
1452,1012893758.3717
1453,58337893786.8047
1454,967.244645198149
1455,44776613409.4356
1456,1332157438.53928
1457,9615790.61697071
1458,85803350045.3515
1459,21461276282.7941
1460,1169438119.36922
1461,2399282724.85152
1462,7099661782.53538
1463,7359329700.41637
1464,30631688940.1897
1465,38209968.6872979
1466,8914006562.19627
1467,2818483092.94988
1468,1082475569.17516
1469,47279264514.9023
1470,1496176587.06278
1471,749803439.16165
1472,85044991534.2038
1473,19171879960.1431
1474,58645307093.4963
1475,420213808.524059
1476,23296220722.5636
1477,54025170.7447218
1478,329645618.139414
1479,148303.85066777
1480,64116399541.3613
1481,7345131744.44585
1482,833220285.10943
1483,17364972950.8451
1484,487031446.11313
1485,58332534391.6429
1486,23767833065.1563
1487,3560088061.78292
1488,5199150204.5421
1489,100286009998.443
1490,38476583411.2874
1491,27225297369.9923
1492,21024579694.0544
1493,3214464141.6265
1494,913615061.455138
1495,58327357608.1951
1496,32200625671.2248
1497,457691835.790444
1498,14616869379.8659
1499,9749706758.21657
1500,339490653.373673
1501,14941948592.7207
1502,11070894262.457
1503,3598733867.69442
1504,20123744945.3556
1505,5455720432.25963
1506,3.12015113133463
1507,7032493367.75677
1508,66931095504.0887
1509,34925219194.0488
1510,4022703186.7923
1511,42169639791.0545
1512,34235423785.0116
1513,1218605096.61239
1514,56331109751.9512
1515,7965922439.7323
1516,3837701353.35179
1517,31876384253.578
1518,24343837.2986001
1519,28189598939.2178
1520,80231051.2085573
1521,873438771.065055
1522,18622157082.9425
1523,1976059040.05906
1524,970578850.873486
1525,15836629227.1719
1526,3967671014.15913
1527,872786386.249455
1528,92861434628.8284
1529,10774494274.1075
1530,8410641.23538156
1532,14393045.8674147
1533,497198976.573287
1534,41077038100.3163
1535,15194080.2168065
1536,4696687465.95566
1537,4900562127.51345
1538,2485059118.24293
1539,1757896010.40393
1540,60244935918.0178
1541,1533771872.53476
1542,3768386095.74309
1543,1446308032.35122
1544,368594451.109715
1545,2328689474.88941
1546,3327486610.26736
1547,4288214490.45739
1548,145165887.981564
1549,87675315880.7173
1551,36125320576.823
1552,2552854216.36697
1553,895610.444872947
1554,10488893.2133754
1555,644844453.670459
1556,352278061.116474
1557,63232270383.2039
1558,51884912544.0223
1559,20724899058.0629
1560,6910897739.2667
1561,394319240.787979
1562,3457528126.84716
1563,6601605483.60906
1564,12343694527.1316
1565,131543863.046312
1566,4277.43160308443
1567,899879300.636497
1568,571088573.247879
1569,430456118.016008
1570,13564509.653188
1571,9788977092.60763
1572,300493410.544241
1573,646074154.46917
1574,27295946830.8832
1575,29165636951.9717
1576,1745385034.87556
1577,22858961385.3769
1578,48296508.0604488
1579,22908091163.5889
1580,4912338940.57239
1581,830899162.680656
1582,5885812250.38755
1583,72924458.0495721
1584,7540299655.97819
1585,4785831136.75114
1586,8723077576.72223
1587,1476867607.60792
1588,7795860967.4527
1589,180838113.782883
1590,7499569.52012413
1591,9902647652.99706
1592,25448897157.1013
1593,3426175396.72
1594,36358462927.4219
1595,83247436.7764106
1596,12855666894.4662
1597,19910795474.7245
1598,2922200775.13514
1599,8115459421.27856
1600,21198526345.9463
1601,516951941.924328
1602,531412878.811638
1603,3200178.15585114
1604,161669805.142361
1605,395861956.763611
1606,20671.8471401798
1607,16477716833.5858
1608,25098379007.6698
1609,26826576500.8349
1610,2005311288.45268
1611,53214144530.7621
1612,6186055.14079286
1613,902332160.071451
1614,40265340265.9351
1615,44990416975.4116
1616,18491970641.9941
1617,3427724857.39501
1618,27933134432.3614
1619,6774184436.54603
1620,579970215.310514
1621,941984724.610551
1622,10981765375.5254
1623,1793345063.44018
1624,32939841993.753
1625,3259754842.83255
1626,398070905.731633
1627,1056248410.04303
1628,19593997948.0669
1629,1941289021.13454
1630,14046797156.5806
1631,14578607352.0961
1632,537747344.55201
1633,26776417274.5387
1634,2377907435.53304
1635,3928274927.81651
1636,20015681321.2082
1637,741048151.900136
1638,412617994.166414
1639,46202950640.0411
1640,5084898808.91314
1641,23654672.0113669
1642,10889830736.7232
1643,6432750980.29061
1644,868586107.687363
1645,418339832.402694
1646,1440019262.35751
1647,3573398907.57027
1648,185756499.685978
1649,2228898698.96893
1650,4853369326.43878
1651,5933599.96436819
1652,51855148949.2786
1653,117380106.421269
1654,296417786.489404
1655,858332074.970913
1656,18596483532.2
1657,1543351508.94022
1658,3858608266.01712
1659,2702904760.82253
1660,4297382147.95405
1661,15506872469.3716
1662,2141354594.69693
1663,1617360126.79577
1664,18351862147.5505
1665,3030154846.28272
1666,65057875538.5115
1667,555141330.232849
1668,3142.45138618212
1669,45198394351.9646
1670,1070318231.69865
1671,1421507483.77078
1672,53550533191.1887
1673,292426671.343857
1674,133617701.732529
1676,713736343.795355
1677,3386098589.34597
1678,2726812979.3563
1679,8239355390.71039
1680,8970696479.67805
1681,993900133.822265
1682,31422371929.2123
1683,1209997573.96603
1684,5074194828.33007
1685,6066684904.10618
1686,161953612.725494
1687,333215024.719714
1688,280823603.415748
1689,147670039.402158
1690,1360944085.44768
1691,2304061426.65686
1692,777678.662793669
1693,12934378774.051
1694,47347790099.0639
1695,54928695733.4346
1696,37684957546.2573
1697,46500601323.2403
1698,2667736584.98828
1699,1109341796.81542
1700,2446700795.65306
1701,3758103639.69821
1702,65404817.5592452
1703,16339.6085573543
1704,145858656.08488
1705,4158148927.54552
1706,262291151.275857
1707,495743634.833532
1708,20641177797.6743
1709,35667607291.56
1710,4062097741.90871
1711,1583551516.88866
1712,138.20438474764
1713,7599161976.46083
1714,2269671874.9733
1715,228944634.042469
1716,25465638475.2601
1717,15821451036.4019
1718,1228773086.44427
1719,6570421235.29139
1720,11829735572.8288
1721,431525339.308123
1722,266240416.822688
1723,686127871.366814
1724,258321243.610723
1725,88355589332.1532
1726,37526340592.6417
1727,1292807182.71574
1728,2739065556.48421
1729,56820762489.2753
1730,30042181918.7762
1731,18485933783.1957
1732,176058286.322433
1733,7032915680.4602
1734,47253759688.9429
1735,2966571383.88233
1736,30900007657.3264
1737,2178658685.47652
1738,1628579978.14044
1739,6021792598.57225
1740,5288735279.63994
1741,18344417334.3645
1742,318795294.295597
1743,4966964823.51397
1745,13586120798.0389
1746,16575040239.2692
1747,604303325.035532
1748,23140785788.3397
1749,1969961277.38196
1750,3529777644.58058
1751,12633424803.4759
1752,764745465.617942
1753,1448348879.16874
1754,17066307315.8099
1755,2087206249.83638
1756,7951407226.122
1757,5530755836.31817
1758,16777891.1313735
1759,1002370328.68001
1760,7332314309.99182
1761,694962904.300896
1762,296398838.563787
1763,50254886738.9607
1764,919238359.582078
1765,3979907098.82196
1766,4344761714.79473
1767,267103260.220599
1768,2142524054.06226
1769,5232409644.20851
1770,14533796179.8721
1771,1157968212.62804
1772,23601732817.5101
1773,7595573897.98931
1774,3770512274.05154
1775,6984.96386977841
1776,248864828.248264
1777,986867.427354841
1778,54534363381.5087
1779,11461159095.6509
1780,2209782160.8411
1781,20401669236.5676
1782,80526597332.9698
1783,8180949515.70022
1784,1950633148.91855
1785,122568734.109656
1786,81987247857.0117
1787,2425531696.05805
1788,2687566910.14046
1789,1519.83071621872
1790,336985608.146544
1791,984838.08696459
1792,34454693519.9614
1793,1116108574.65309
1794,22226321814.7061
1795,87148960913.125
1796,3889385485.26955
1797,246031432.679114
1798,3671970978.77042
1799,6964886.63350607
1800,963689769.122789
1801,261097.617956462
1802,646314650.663004
1803,13124416238.8364
1804,522054088.872393
1805,207793763.835592
1806,3751116203.98678
1807,403677686.9735
1808,567321439.776661
1809,47352223813.2136
1810,312043643.841974
1812,4386074577.80043
1813,11514220468.4037
1814,4953142177.95135
1815,7083652448.55075
1816,47095998673.865
1817,6313941343.7289
1818,5715314761.56721
1819,433826165.149095
1820,42100874168.2267
1821,11927060488.2291
1822,14214390404.4864
1823,835762084.836974
1824,599110181.932583
1825,395164029.726598
1826,11981629842.8787
1827,425391020.396991
1828,1693215593.43227
1829,9171512799.81897
1830,325244391.346462
1831,3823067953.7817
1832,1294642209.79768
1833,273080266.110522
1834,4290995643.56087
1835,13778732781.4669
1836,57404497778.1743
1837,18005722847.8013
1838,12884485345.4524
1839,9956131574.71379
1840,84783663644.984
1841,2088132252.22605
1842,251081183.480685
1843,4442541929.47151
1844,420245882.945625
1845,14565125856.9734
1846,233061122.501275
1847,5308908307.48562
1848,9659342251.14362
1849,2237760477.55496
1850,8639340779.61921
1851,682494014.763648
1852,5315693689.72408
1853,102678114.725622
1854,18453437228.5107
1855,2629975958.00135
1856,616924795.877984
1857,37162575.4197659
1858,13529940616.5111
1859,9859704623.40944
1860,6973266654.8066
1861,2759415938.66412
1862,333418098.592421
1863,1907192323.72293
1864,6704066668.98937
1865,1031387851.93082
1866,10383659907.956
1867,44593107723.9887
1868,36800670521.2568
1869,14303507642.4951
1870,15021873921.2561
1871,37890980807.7673
1872,2212319842.08982
1873,16839586190.8897
1874,42440338063.7406
1875,71416983.5482587
1876,105980250.870202
1877,5028931809.68833
1878,24516234725.5371
1879,1729226527.13266
1880,2136822116.9868
1881,20158959214.355
1882,21019922.2071118
1883,7448218903.32293
1884,46942213.5013768
1885,21855155653.8289
1886,14250939663.3798
1887,219350089.247584
1888,36178825065.9144
1889,27937288269.6816
1890,8870748403.40266
1891,45206563614.5407
1892,1348226691.53031
1893,13896466483.3655
1894,918333750.230103
1895,51433814508.8809
1896,62892112572.2009
1897,34042890394.8147
1898,23846403217.2048
1899,725783.532667765
1900,105230356.374472
1901,2821034541.93064
1902,21310913268.1806
1903,31126007444.9375
1904,11800343733.058
1905,2612047000.82399
1906,488723153.922199
1907,23741602940.4903
1908,4386232538.54308
1909,152543981.152403
1910,171578484.504942
1911,2412890214.9384
1912,49750803012.5733
1913,3187550887.32521
1914,31395918242.9439
1915,4656931532.84698
1916,2929672253.36937
1917,1107022248.79573
1918,33791882408.6987
1919,3545715928.06356
1920,15732751.1268543
1921,500158416.303808
1922,24041908698.5746
1923,20475649573.3678
1924,6970569389.851
1925,5937981047.57059
1926,7902841.46899103
1927,2393320783.07228
1928,4285172501.15321
1929,5550078191.24696
1930,29489818.7896292
1931,40641445721.6211
1932,2620666264.51759
1933,12041755689.5066
1934,2045612686.38441
1935,1065682242.85074
1936,46836264974.4738
1937,29463273.2758631
1938,1257245155.05813
1939,1998442764.02935
1940,33820013854.7019
1941,2557679844.2636
1942,763409770.62602
1943,64885595751.562
1944,1572604218.10996
1945,115592075.184127
1946,251381003.554763
1947,18790162879.3327
1948,6676607.14607115
1949,7380438336.32894
1950,8409257693.99428
1951,302783227.541511
1952,7525803080.54045
1953,5512422244.37879
1954,21417113.1961918
1955,1219706269.49319
1956,2358445181.76964
1957,10795980369.0162
1958,606467369.619337
1959,15819680779.1498
1960,848525890.122904
1961,742502161.517074
1962,3756317004.06848
1963,1243419300.89143
1964,5230080688.34696
1965,15957186103.2783
1966,163494197.138541
1967,185365191.618212
1968,2527852091.55065
1969,7702639960.58806
1970,22243383629.7836
1971,31212413292.6194
1972,2019906558.49305
1973,687548540.537808
1974,22054953206.0322
1975,73507951.0497035
1976,48264399954.6613
1977,39029976950.9048
1978,39403787.2728111
1979,19083046315.5605
1980,57135056141.5212
1981,38626717035.3156
1982,38153883139.1011
1983,9287816858.42771
1984,2990099015.08517
1985,3699695428.61202
1986,3030228.44506773
1987,1716265822.77422
1988,173165763.413934
1989,37870896911.6478
1990,543116911.339154
1992,164076867.387158
1993,13026636357.4238
1994,8169485086.20858
1995,5772680255.9534
1996,5379380801.91501
1997,270095895.143299
1998,3184195932.85445
1999,38711950616.9026
2000,8869670604.63865
2001,2692785.27198075
2002,133153.104932944
2003,4718205017.9294
2004,66803811327.1123
2005,20145978.3117021
2006,7606739486.44448
2007,346331133.069511
2008,10621270.4056953
2009,542999607.9411
2010,7683101080.98952
2011,38334387583.9694
2012,922344527.319777
2013,28501181240.7436
2014,46170742482.0019
2015,35465137123.4337
2016,2078145536.04839
2017,1467883663.31128
2018,21342149398.2121
2019,4566874663.06036
2020,1131729123.08268
2022,4164027814.47156
2023,1905310674.18962
2025,29034742039.2086
2026,4888971065.302
2027,2336125031.25174
2028,9723381481.60946
2029,1007756513.73721
2030,4088722297.84754
2031,6909193642.54558
2033,412587916.226628
2034,949550516.972553
2035,17220054.3183578
2036,1192461958.86185
2037,2013130.56091365
2038,2496415802.88126
2039,98066626.2067372
2040,125215066.341592
2041,918061326.173512
2042,18075162188.597
2043,41107785807.2974
2044,4429906294.32183
2045,9717875796.87317
2046,1752866244.63299
2047,119867766.382106
2048,331265120.189219
2049,37840176763.9594
2050,7061720806.88941
2051,41045345884.2513
2052,93942696689.2491
2053,43439048339.4631
2054,3781147031.76596
2055,3025969569.34626
2056,8534298791.93491
2057,1147332647.71215
2058,3391779461.41467
2059,0.107783073136635
2060,17429010631.9746
2061,227385047.208654
2062,2693180478.56973
2063,95808659.5214183
2064,4776659685.96525
2065,59587779921.1797
2066,48843902423.4946
2067,9521726263.231
2068,26528812789.6509
2071,34297026500.8858
2072,37491343883.8496
2073,823464973.485949
2074,183925037.439467
2075,2545146286.98227
2076,25573589384.5291
2077,2856915351.58799
2078,3449441184.12952
2079,682481690.413339
2080,954561434.315732
2081,19356086.2912725
2082,6669541062.14524
2083,52899406906.7318
2084,13541119960.1117
2085,26084644163.9869
2086,49878288810.05
2087,399149706.791244
2088,81403837255.2223
2089,4848389417.6518
2090,46054593557.4453
2091,210298.778127249
2092,4989439964.8813
2093,1136069.24498663
2094,7674478516.17626
2095,801767723.440131
2096,4823.21738750487
2097,8071114157.07522
2098,892030817.548889
2099,14325311536.7058
2100,2379145211.54306
2101,3877685580.24013
2102,13387199859.9993
2103,1020189805.19092
2104,8769472739.32948
2105,122738896129.618
2106,1732739301.94811
2107,49779833070.0572
2108,1465299074.27797
2109,25059866981.5445
2110,37159112486.2363
2111,604396493.318667
2112,26221506795.3838
2113,16818583738.4684
2114,8307592.66049054
2115,3752614455.55416
2116,14517335090.9091
2117,2305341039.95199
2118,65340484.7431249
2119,411854757.130744
2120,6771794276.48005
2121,19087748656.8047
2122,1553103846.30739
2123,6939486938.25679
2124,6009022916.42243
2125,6809666682.90703
2126,6114301778.36556
2127,2744513529.70897
2128,9620616157.02966
2129,23944964.8155501
2130,65059004285.3897
2131,13187003195.4618
2132,12497810906.5286
2133,710800333.426589
2134,40885612.1035307
2136,2187006464.9916
2137,749780767.649098
2138,2488543670.38488
2139,1000759263.25136
2140,3973952721.82647
2141,91343888455.5186
2142,186291947.135732
2143,2127593600.27318
2144,576648296.49408
2145,362504.59333591
2146,9799312680.23907
2147,17622141607.9773
2148,653956662.656512
2149,4167624135.30108
2150,569217259.882037
2151,741514527.349241
2152,317324233.07897
2153,7143668787.13282
2154,5369251317.15474
2155,20765772619.8288
2156,195315981.461079
2157,89071601206.6544
2158,130221176911.737
2159,9381655947.26397
2160,12583654389.4661
2161,59900801663.2031
2162,37764426393.9851
2163,1124545410.40365
2164,45787812914.7697
2165,58075622873.4764
2166,3913208981.94724
2167,446284131.253994
2168,1223681825.60577
2170,15301977.910446
2171,40299106539.9694
2172,69886295555.2053
2173,79853096518.559
2175,14994405592.9926
2176,401361113.68961
2177,30005409014.6885
2178,30627131902.8353
2179,2475967494.03108
2180,16259213824.5764
2181,2387670672.34251
2182,305816789.516156
2183,1614574006.10895
2184,5913314625.51337
2185,362360721.461854
2186,58950563906.5582
2187,8078703777.83604
2188,2337486347.74545
2189,1257244877.57609
2190,5292266071.32402
2191,380694342.110236
2192,9758287691.94507
2193,11617568141.0166
2194,351050986.915005
2195,21314450312.6316
2196,21668086903.8369
2197,3124778367.6228
2198,1546216866.86538
2199,6063530019.95406
2200,50274061466.1667
2202,111394137087.679
2203,1511165905.776
2204,1639536719.29938
2205,248274.562176696
2206,18977206885.0784
2207,419906400.576732
2208,54434059.230591
2209,23083439481.2777
2210,6934578865.76579
2211,8150914354.98175
2212,779385891.788919
2213,16033488922.4532
2214,33758706155.7682
2215,24258254185.1305
2216,212602196.953553
2217,7977451446.47913
2218,893608.166662881
2219,192117771.030645
2220,62693805.5044931
2221,37629722542.6799
2222,16595391330.6805
2223,11572943932.4589
2224,17933313081.3551
2225,186259416.810909
2226,316446278.640921
2227,4205623191.15785
2228,788866518.087406
2229,1483950773.4999
2230,127376169.026138
2231,12472292414.5291
2232,458454268.89465
2233,1836051653.12588
2234,39586578993.3783
2235,3207992804.68169
2236,3663979035.61035
2237,6808793505.63122
2238,2213788661.44022
2239,159515601.221682
2240,1172658442.7345
2241,3559523089.80278
2242,6221246238.11272
2243,14818819906.1012
2244,48016019089.1921
2245,15551582868.9369
2246,14783395908.3465
2247,12110591484.9964
2248,42617460641.6854
2249,25144074710.2062
2250,48627025018.676
2251,19082983014.305
2252,812366863.195102
2253,175339712.584273
2254,14719222422.0382
2256,7047586412.24499
2257,171740742.331171
2258,649220200.900304
2259,802747750.371151
2260,63471262.1617982
2261,8519721476.9009
2262,61571752107.4983
2263,8997430.1452001
2264,2772806810.21487
2265,10587604168.8912
2266,23525754524.4039
2267,45282062797.4072
2268,35386913628.4331
2269,723748105.884928
2270,10165974388.1592
2271,3416570580.80691
2272,266375332.326369
2273,318155275.474407
2274,1457.36458579718
2275,223373815.610724
2276,13629463591.197
2277,691247.018340465
2278,1415816208.82344
2279,1468958160.67049
2280,1325880139.99422
2281,2320229000.78895
2282,2321746549.66534
2283,9215198627.49281
2284,333664879.744432
2285,67289327168.5764
2286,59272295044.8615
2287,2160738448.02098
2288,26630220931.9879
2289,2645054593.66513
2290,34694232456.8798
2291,179326412.16278
2292,5720858533.23583
2293,12792281272.5353
2295,771845291.056715
2296,26169312981.1667
2297,612850793.262777
2298,60100969.8493869
2299,4390049251.56911
2300,644756054.037963
2301,1125856597.59029
2302,19393688535.6466
2303,15310132699.5659
2304,44783655.0457335
2305,450009032.476871
2306,660578297.528284
2307,385511353.956612
2308,30384155628.1244
2309,15491814018.1266
2310,35365023773.6319
2311,49446918775.645
2312,2145634303.36898
2313,4514382775.84306
2314,94150331639.4206
2315,629091526.339071
2316,1014336.46596487
2317,5523686791.40226
2318,1248006690.39896
2319,1395534471.89312
2320,34239680138.2885
2321,22647603605.5023
2322,6502.23131863572
2323,135744403809.52
2324,866255550.054074
2325,46720128.3529005
2326,19593904604.251
2327,3717962359.43261
2328,6717459210.79021
2329,52212986.75419
2330,34934979736.6932
2331,15586962.8687205
2332,365452297.282917
2333,411204986.598433
2334,435.62089075631
2335,1355573057.24987
2336,21129447791.0643
2337,594125402.304031
2338,849120730.853805
2339,327592662.599681
2340,418232691.89782
2341,17883832814.0178
2342,1525265749.49941
2343,3449052052.26999
2345,1421862050.45606
2346,701139413.279844
2347,601359855.71137
2348,50976396378.7501
2349,1556679882.96339
2350,3294722012.9121
2351,3709942544.00321
2352,5843304151.48396
2353,3567200165.70511
2354,264975700.965846
2355,13658037825.0977
2356,6021856641.22105
2357,779559219.58069
2358,960063836.920116
2359,39914481650.3702
2360,345055813.993384
2361,1290917438.90161
2362,60186045409.7387
2363,34454926697.0707
2364,14574412.9252376
2365,3440246805.06408
2366,6678794084.49537
2367,701748728.676782
2368,2154767882.09029
2369,21096819178.0746
2370,426212582.535226
2371,2379157774.58616
2372,11425712395.9173
2373,55083608.5845783
2374,736041505.765763
2375,2343280800.82463
2376,119964029.478027
2377,2589805970.88727
2378,3833670715.56341
2379,19053547225.6774
2380,218664659.178577
2381,1315634132.93586
2382,32986614.6090412
2383,44620040494.5515
2384,5784242515.40378
2385,12607690667.0326
2386,37324840398.9912
2387,8394120952.0106
2388,26036402.6817001
2389,1250013522.80722
2390,1207946574.98069
2391,390144047.351125
2392,2873502836.12313
2393,1777983691.94992
2394,13160539045.9057
2395,69403354106.8107
2396,720844811.234404
2397,74113324837.9186
2398,279878243.191308
2399,19476252.6891852
2400,6824540348.65089
2401,39846658704.3372
2402,16023465.1513319
2403,41167676.9125944
2404,934881249.215974
2405,12987883548.2779
2406,519802181.88676
2407,75465375097.9733
2408,5226493738.4288
2409,3150798711.99999
2410,473260562.087496
2411,54293230592.1951
2412,3003718523.28384
2413,31980100288.6839
2414,37593314572.6959
2415,32204544621.6119
2416,242953011.344526
2417,5335917769.04921
2418,511801693.327413
2419,154153003.400834
2420,35765057183.2449
2421,3098097309.90516
2422,187676222.04894
2423,2634939050.13468
2424,1946309643.48446
2425,9201755914.2965
2426,3746005063.71388
2427,21251654422.075
2428,2992361541.95254
2429,6060696101.58455
2430,25853211417.3325
2431,15364334029.6457
2432,14785565188.0919
2433,15137848883.7831
2434,51589060144.08
2435,4904978794.55584
2436,4044009707.78528
2437,1400510689.01956
2438,499259020.792972
2439,28964978574.2789
2440,61380502.5791829
2441,11610832941.9482
2442,15462691000.2297
2443,507786141.419857
2444,0.00746603759423859
2446,1015541492.50551
2447,6706364817.21989
2448,4510064929.66917
2449,57058507934.9451
2450,52551557.1591095
2451,32142816147.8151
2452,467265711.16885
2453,15591.1464705658
2454,1156581659.99771
2455,1010799892.27662
2456,23858998690.5903
2457,428509984.194733
2458,9291828201.12662
2460,35859771273.3727
2461,51377288908.6024
2462,769900416.771677
2463,4545705382.34264
2464,5399586332.22972
2465,7956853016.31454
2466,8945546997.8298
2467,6420376492.39375
2468,2518881842.11783
2469,33641640124.4629
2470,93444137.9179528
2471,21462373000.0618
2472,16010712299.4124
2473,27957794.4409687
2474,21173760638.0057
2475,5502206678.09477
2476,574424152.32852
2477,20500991711.2567
2478,24552746637.4008
2479,16096288.1502599
2480,42191556493.2339
2481,39959675884.5124
2482,979541957.998826
2483,9415428884.83538
2484,294890108.526681
2485,4676086472.07278
2486,24486275449.414
2487,46000511.7652545
2488,276968107.670035
2489,449880593.566478
2490,12358776957.7625
2491,258549686.851337
2492,3921616724.81293
2493,7474330920.76908
2494,492495848.843819
2495,6997716374.2475
2496,154481624.73305
2497,29529773659.0383
2498,143042200.944149
2499,49797894027.6555
2500,1575928782.39174
2501,30774584096.1934
2502,14920207.6307334
2503,318378117.422346
2504,838923518.471723
2505,21689602.4319595
2506,55983097542.5948
2507,4556246554.86975
2508,720109789.38454
2509,332491603.650257
2510,830512918.470994
2511,725151577.429624
2512,57929129611.3288
2513,468972296.458505
2514,21856542952.2709
2515,6124908292.95417
2516,38684480901.5563
2517,58603118.4149872
2518,23487742644.57
2519,12327658160.0549
2520,1726476425.8038
2521,1497305085.95088
2522,1823817296.90791
2523,694082748.123105
2524,690474797.174183
2525,9017.17277012212
2526,5575600794.70667
2527,16767817236.6923
2528,69476246222.2606
2529,6498344289.63504
2530,8439879408.68747
2531,25163736.9796127
2532,22471750037.6199
2533,1136729911.35513
2534,17886588816.3916
2535,3196173445.50778
2536,623470272.168528
2537,24283704932.8434
2538,7380728664.02784
2539,44961059859.0946
2540,24869236354.3263
2541,9042385099.6339
2542,9449118513.85745
2543,13011595.2055054
2544,295439860.113652
2545,26455354491.9582
2546,7326708901.68614
2547,4159860687.08125
2548,2965239371.50483
2549,2829.07358744336
2550,133747163.130623
2551,2268267983.37594
2552,1885232650.64002
2553,16846562146.9203
2554,687726.873620917
2555,2314041488.69887
2556,6319164610.04444
2557,3001395848.68597
2558,91769142130.1269
2559,1920377.22249191
2560,1695662432.69269
2561,14073614076.0596
2562,11310868866.6852
2563,4811708373.36561
2564,8560570562.98806
2565,6423993.34468185
2566,114894927.971133
2567,8941264135.99271
2568,57865510814.5254
2569,3941926857.00195
2570,1824102186.64136
2571,1671843810.77392
2572,82906853191.3737
2573,3524737129.02842
2574,49323544934.4186
2575,64564431801.0993
2576,44994106.6334014
2577,2598691188.40867
2578,3927230644.84719
2579,10986119999.2169
2580,34479732485.3687
2581,49256153565.2223
2582,34628524607.878
2583,157025469.947498
2584,14692432882.0362
2585,1875951928.5944
2587,943158510.436643
2588,63843528560.0151
2589,77422686857.7869
2590,29497132052.2953
2591,33488519160.4116
2592,26933802084.0429
2593,64896794.9188438
2594,2013861926.80852
2595,5114486316.35102
2596,4883129275.43959
2597,15890816628.6908
2598,33430961013.5407
2599,239845.481163274
2600,23335298319.0252
2601,6344923468.177
2602,174468796.387742
2604,3265132288.85932
2605,4215091777.74765
2606,77269338614.8309
2607,19905212593.4323
2608,20257458590.9611
2609,3293869769.79837
2610,270578871.141122
2611,44699142000.5794
2612,7704264399.52377
2613,673858126.961125
2614,3192872697.56185
2615,88691018139.734
2616,877355967.892481
2617,51662108286.8924
2618,4399389199.34048
2619,456897518.399158
2620,3734335528.78506
2621,62623153.9104066
2622,12401011537.5979
2623,16064250660.2031
2624,44889700064.5463
2625,970094883.021908
2626,22982908.306415
2627,2280253920.91232
2628,7799540577.95649
2629,35809151924.3828
2630,7851036782.66843
2631,12789494134.6313
2632,435873975.028055
2633,2542097056.22617
2634,230884589.139948
2635,2919376715.75717
2636,78606676771.5667
2637,276552019.474989
2638,5305980676.10275
2639,7248497554.83434
2640,1106076075.42415
2641,1214490544.52979
2642,1555276178.61072
2643,809850827.610744
2644,6771815535.00131
2645,3587371475.15764
2646,4416107606.29778
2647,427384988.082178
2648,15673318234.4009
2649,8433887162.04861
2650,540058490.913517
2651,4706008.62753923
2652,7511964079.45504
2653,49029442.7609867
2654,19402970481.1746
2655,45944451356.4186
2656,2940317064.06078
2657,403272702.966136
2658,30280582544.1991
2659,15130137889.2952
2660,1584265421.22393
2661,10344555336.8261
2662,26749024663.0168
2663,6784851962.86026
2664,75622072281.5387
2665,2844987455.38702
2666,9351897.6869332
2667,6668087487.38443
2668,22598448925.2502
2669,514411542.10395
2670,2607633668.36422
2671,428191532.354761
2672,29605527866.3288
2673,1052207991.60273
2674,6414243700.13646
2675,414384885.651212
2676,2619213299.92128
2677,12423834887.8505
2678,500822341.186453
2679,3266071277.10395
2680,727278589.460076
2681,8861891705.13981
2682,171841474.73721
2683,24271666813.6461
2684,4972907922.79557
2685,10891454264.1249
2686,1498401391.35645
2687,3285146943.06434
2688,22701601392.9865
2689,3487073138.83832
2690,52321866036.1778
2691,46284110737.5216
2692,223252066.053448
2693,79843505510.4382
2694,49613625.3015442
2695,28426189630.6609
2696,4189849363.3096
2697,5710128.67744898
2698,636436609.552796
2699,29770958461.8447
2701,1309602606.82243
2702,13834487089.808
2703,541717569.196671
2704,23511543800.9779
2705,24629996924.5163
2706,6399659857.11079
2707,19922468535.9158
2708,2110837023.40102
2709,388693688.764209
2710,63018134162.9739
2711,1328416947.37664
2712,4097970712.01615
2713,671430.51885526
2714,2488021175.21989
2715,1778492.04147423
2716,60566351980.8545
2717,44334015974.5733
2718,2225236822.98439
2719,32620609.9004709
2720,31699389.4090593
2721,34233455891.7862
2722,6064523216.63205
2723,4665697720.36224
2724,91103839.7979837
2725,5403768756.1103
2726,944500577.173312
2727,2706890710.33681
2728,50932330990.3453
2729,12148148175.7777
2730,3511221389.42803
2731,11377651669.0411
2732,12562168448.7015
2733,5304625201.02717
2734,18458691556.8448
2735,99325190167.733
2736,44924231192.1834
2737,32626245300.7932
2738,2051358996.13369
2739,148897063.925535
2741,3988578.12560011
2743,9428210204.15987
2744,180129131.979386
2745,1312732268.05627
2746,110236345.190214
2747,704901794.796536
2748,3658704096.54876
2749,26287606350.2985
2750,1109350285.69108
2751,169444638.3774
2752,19732171878.2125
2753,671421754.456663
2754,1010067208.658
2755,25544166645.6926
2756,44922198025.8037
2757,3136483327.63839
2758,734009305.720779
2759,11128734525.1168
2760,34787204290.4516
2761,51593137936.4363
2762,1864528741.27877
2763,13403309432.6137
2764,24777703.4927022
2765,5764348769.92913
2766,27133515982.663
2767,4818139093.69301
2768,4048782410.38839
2769,3015474068.22999
2770,3979557.28234242
2771,821885662.412148
2772,919127851.907942
2773,2405691099.12628
2774,13141879.6881058
2775,49129035190.1938
2776,5330195154.54851
2777,71852433143.5521
2778,347743296.259104
2779,853956406.144583
2780,1294691.65334875
2781,13583721484.1732
2782,699649008.360465
2783,17657237645.6456
2784,2787911890.8951
2785,341561525.212753
2786,1849552141.58043
2787,789693393.581669
2788,1629898315.55782
2789,2191707207.94556
2790,4677884108.92206
2791,558507260.064647
2792,34426217677.8922
2793,40703786398.5321
2794,246574503.493327
2795,218539603.783305
2796,16063556150.1022
2797,16844536485.5011
2798,3584699718.86076
2799,22509857461.197
2800,6902218941.38256
2801,9274996620.89798
2802,20542321404.3975
2803,68907338597.2179
2804,5149169451.19559
2805,1101597268.89946
2806,43129617337.673
2807,9954840840.41249
2808,33554265.4140665
2809,625969095.082214
2810,4312366132.65059
2811,386428603.832665
2812,7584687127.73167
2813,274502289.779369
2814,2506656366.16408
2815,5322514672.63666
2816,9710091736.80659
2817,2272825355.14731
2818,283265.084653841
2820,9047647804.80946
2821,8414221929.70759
2822,10739425355.9143
2823,46112604916.9445
2824,251769483.477427
2825,41014884022.3395
2826,1478467030.41926
2827,2632787783.30744
2828,35077114083.9133
2829,708233921.596714
2830,6002946478.63708
2831,46206586410.8136
2832,53413002044.2379
2833,4030337311.44918
2834,39515060.4329273
2835,28304527212.7867
2836,1215956427.64621
2837,58493716522.6362
2838,1079.97140625054
2839,62706737.2401032
2840,5193397795.56764
2841,14740516075.3842
2842,617899775.372731
2843,943119373.898327
2844,35858232469.5147
2845,1080223035.74234
2846,910289157.39443
2847,3602288066.30082
2848,91464663.8159417
2849,43173204446.1444
2850,10605109.0820487
2851,183246599.738095
2852,1702526.73814019
2853,807149.286525992
2854,80966548654.3543
2855,3697118444.81318
2856,4958602555.50201
2857,47771121770.3143
2858,17290442000.1304
2859,5942858.91892117
2860,4604625802.77853
2861,29002279728.9753
2862,416115220.887427
2863,2205868540.54642
2864,28217026235.9193
2866,317425005.6469
2867,11904542830.376
2868,2870775118.04113
2869,24511858476.5349
2870,18677564515.514
2871,1114019253.60319
2872,25648960974.5687
2873,1074466087.32235
2874,362951828.547319
2875,3500553639.59745
2876,13475711846.6686
2877,1206745.93748562
2878,50195917239.414
2879,18198396589.5655
2880,12928473156.621
2881,1095933969.98883
2882,40439397446.1768
2883,574977988.682874
2884,189256441.770804
2885,7561209871.81143
2886,12219654944.5148
2887,3287238810.25667
2888,1152385042.50478
2889,8066965839.40844
2890,5599964472.8053
2891,2536782328.87915
2892,231872910.066197
2893,22057172671.1852
2894,39034273723.8235
2895,1196879868.96954
2896,2984576339.49042
2897,1474117223.11511
2898,68292126127.7998
2899,8794955155.62517
2900,724230640.729691
2901,1393160841.48666
2902,486256120.152115
2903,11542977432.6015
2904,19043407645.0793
2905,3312157091.78317
2906,16367249881.2193
2907,349155673.652601
2908,3068925294.68381
2909,4147625584.3086
2910,1061780676.27239
2911,974537969.241277
2912,926991177.356903
2913,26543863646.7732
2914,49482490719.6473
2915,3153786606.84127
2916,15197.2279774151
2917,16379390530.8008
2918,344661200.204039
2919,21640550728.2581
2920,16965506981.7499
2921,39594271074.5775
2922,7494729685.19589
2923,6524450763.93037
2924,48261355968.3035
2925,12032738153.0386
2926,877490592.828839
2927,2525178937.37776
2928,23421916217.1058
2929,4638391415.2223
2930,1000511713.88629
2931,687284981.32521
2932,336488322.384881
2933,56390507.6803281
2934,1002521633.60283
2935,9091.07870027962
2936,7222597176.5617
2937,14875843085.9928
2938,34843457390.6224
2939,27925658746.4238
2940,114317927.522121
2941,21456632631.2219
2942,56527064466.8983
2943,2886343.36514021
2945,198028790.161293
2946,234747140.144982
2947,72276966281.097
2948,16201038174.9164
2949,22391605599.7115
2950,31285524845.2632
2951,572437955.093525
2952,484657721.133542
2953,16125795356.5288
2954,5826606051.01475
2955,103122981223.798
2956,85609768.5108642
2957,37070502635.7845
2958,27408443593.8693
2959,124582711.776877
2960,5908670902.1895
2961,919589579.391978
2962,10967848015.4375
2964,1091052151.58546
2965,465881921.46394
2966,73072835.6406029
2967,25638825280.6495
2968,84378189489.0544
2969,189947222.374164
2970,63782275.7968112
2971,2461061463.49221
2972,32355301272.6446
2973,20496675.0923908
2974,4056299.1126067
2975,2001850249.11485
2976,49169410167.5562
2977,40988243784.281
2978,2226217050.8023
2979,1443175190.32963
2981,1759989011.06909
2982,7211287675.58682
2983,7473835787.73275
2984,230387146.195728
2985,2673195645.89975
2986,88003787443.4155
2987,855338487.829396
2988,15873365920.5375
2989,802055802.171361
2990,1394158341.3539
2991,27926859927.6263
2992,826011716.580324
2993,14599617150.013
2994,11958240902.2827
2995,19870702664.6434
2996,8991127539.64203
2997,3722227927.93704
2998,35011233325.2524
2999,127895197.857215
3000,328977763.049915
3001,918030638.536861
3002,1193442705.28217
3003,20858097844.0447
3004,5930250563.23496
3005,1976929365.69227
3006,18674550913.6666
3007,25236585247.2949
3008,95278383208.5273
3009,402519736.768712
3010,847845032.257854
3011,34513435527.8718
3012,784447142.777676
3013,8544922007.22383
3014,56200311.2163141
3015,7557570333.47055
3016,531668635.664852
3017,42154083686.6482
3018,1079404619.35832
3019,295010.728293507
3020,1554056045.90734
3021,954548357.554821
3022,5957966741.55618
3023,4340888148.30792
3024,16223835298.8636
3025,24965742919.3523
3026,422088456.931502
3027,47946127699.8941
3028,17533523.9914728
3029,33904594.7898395
3030,48058279213.5311
3031,2366041081.49328
3032,24537139103.9416
3033,18787219531.2099
3034,2989831708.78346
3035,3164960240.65282
3036,377420.011164138
3037,2067265226.98598
3038,1845521422.72963
3039,3243649605.14108
3040,1994039995.88948
3041,3181618104.32735
3042,41808467257.3907
3043,1233743.66829577
3044,11148625271.23
3045,1985309507.7183
3046,45212219151.299
3047,19.9252933465887
3048,306819100.303292
3049,10353212913.2315
3050,772344.668306338
3051,28137633.7664963
3052,126462746091.534
3053,195902430.204421
3054,3456050836.72818
3055,23036542476.5034
3056,1786566962.56409
3057,191776362.391841
3058,380246718.251023
3059,1379157645.27152
3060,1726825182.27784
3061,35394.3419334346
3062,10317895431.3899
3063,1306802237.51346
3064,50324222278.4457
3065,11346996432.1864
3066,35214298177.5788
3067,557561600.965122
3068,25422786091.552
3069,1894603129.07403
3070,1686290560.19809
3071,273046104.184923
3072,2641273463.20269
3073,40731563458.438
3074,42136049467.9364
3075,1986371584.62173
3076,152285.790975515
3077,655372708.129826
3078,603357112.876434
3079,12411650053.1426
3080,28403387653.726
3081,2767638735.6268
3083,122911593.248213
3084,16924010485.152
3085,38552834803.3466
3086,552258452.319901
3087,58320715475.5557
3088,20796820763.6146
3089,7391565048.44102
3090,1818937397.30488
3091,1288352812.4154
3092,841992147.969013
3093,6548804442.8859
3094,421736163.533117
3095,828962058.20217
3096,25038368136.4526
3097,10575610800.3896
3098,1419883039.06062
3099,51112.9893522987
3100,2453630403.9055
